…
Looking across choice tasks, we can see that sometimes respondents choose 0 quantity of all alternatives in a choice task. In this case, their entire budget is allocated towards the 'outside good', which is not explicitly stated in the data. Even when they choose any positive quantity of alternatives, they would still consume some amount of outside good. Volumetric demand models regularly assume that respondents never consume their entire category budget, there will always some amount left (and if it is only a fraction of a cent).


```r
  pizza %>%
    group_by(id, task) %>%
      summarise(x_total = sum(x), .groups = "keep") %>%
      group_by(x_total) %>% count(x_total)
#> # A tibble: 22 × 2
#> # Groups:   x_total [22]
#>    x_total     n
#>      <dbl> <int>
#>  1       0   282
#>  2       1   316
#>  3       2   330
#>  4       3   207
#>  5       4   233
#>  6       5   102
#>  7       6   406
#>  8       7    36
#>  9       8    52
#> 10       9    15
#> # … with 12 more rows
```
…
### Screening probabilities

Using `ec_estimates_screen`, screening probabilities be obtained.


```r
  out_pizza_screening_cal %>% ec_estimates_screen()
#> # A tibble: 22 × 8
#>    attribute lvl        par                  mean     sd  `CI-5%` `CI-95%` limit
#>    <chr>     <chr>      <chr>               <dbl>  <dbl>    <dbl>    <dbl> <dbl>
#>  1 brand     DiGi       brand:DiGi        0.0205  0.0377 0.00166    0.0452    NA
#>  2 brand     Fresc      brand:Fresc       0.118   0.0423 0.0641     0.172     NA
#>  3 brand     Priv       brand:Priv        0.167   0.0478 0.0981     0.236     NA
#>  4 brand     RedBa      brand:RedBa       0.130   0.0437 0.0752     0.189     NA
#>  5 brand     Tomb       brand:Tomb        0.171   0.0494 0.100      0.239     NA
#>  6 brand     Tony       brand:Tony        0.269   0.0556 0.180      0.353     NA
#>  7 cheese    NoInfo     cheese:NoInfo     0.00854 0.0353 0.000366   0.0175    NA
#>  8 cheese    realcheese cheese:realcheese 0.00881 0.0354 0.000402   0.0187    NA
#>  9 coverage  ModCover   coverage:ModCover 0.00879 0.0353 0.000427   0.0180    NA
#> 10 coverage  densetop   coverage:densetop 0.0102  0.0356 0.000506   0.0229    NA
#> # … with 12 more rows
```
…
