Vignette - Conjunctive Screening in Models of Multiple Discreteness
…
Screening probabilities

out_pizza_screening_cal %>% ec_estimates_screen()

## Joining, by = "par"

## # A tibble: 22 x 8
##    attribute lvl        par                 mean     sd `CI-5%` `CI-95%`   limit
##    <chr>     <chr>      <chr>              <dbl>  <dbl>   <dbl>    <dbl>   <dbl>
##  1 brand     DiGi       brand:DiGi       0.0333  0.0223 9.14e-3   0.0632 0.0718 
##  2 brand     Fresc      brand:Fresc      0.103   0.0332 5.41e-2   0.155  0.182  
##  3 brand     Priv       brand:Priv       0.170   0.0406 1.07e-1   0.236  0.287  
##  4 brand     RedBa      brand:RedBa      0.136   0.0377 7.79e-2   0.196  0.227  
##  5 brand     Tomb       brand:Tomb       0.159   0.0480 7.77e-2   0.232  0.282  
##  6 brand     Tony       brand:Tony       0.280   0.0560 1.87e-1   0.363  0.420  
##  7 cheese    NoInfo     cheese:NoInfo    0.00647 0.0168 3.45e-4   0.0175 0.0110 
##  8 cheese    realcheese cheese:realchee~ 0.00634 0.0166 3.48e-4   0.0169 0.00552
##  9 coverage  densetop   coverage:denset~ 0.0131  0.0193 1.05e-3   0.0315 0.0166 
## 10 coverage  ModCover   coverage:ModCov~ 0.00649 0.0167 3.63e-4   0.0170 0.0110 
## # ... with 12 more rows
…
